<?xml version="1.0" encoding="UTF-8" standalone="no"?>
<svg
   xmlns:osb="http://www.openswatchbook.org/uri/2009/osb"
   xmlns:dc="http://purl.org/dc/elements/1.1/"
   xmlns:cc="http://creativecommons.org/ns#"
   xmlns:rdf="http://www.w3.org/1999/02/22-rdf-syntax-ns#"
   xmlns:svg="http://www.w3.org/2000/svg"
   xmlns="http://www.w3.org/2000/svg"
   xmlns:xlink="http://www.w3.org/1999/xlink"
   style="enable-background:new"
   height="1400"
   width="1400"
   version="1.1"
   id="svg2985">
  <metadata
     id="metadata2991">
    <rdf:RDF>
      <cc:Work
         rdf:about="">
        <dc:format>image/svg+xml</dc:format>
        <dc:type
           rdf:resource="http://purl.org/dc/dcmitype/StillImage" />
        <dc:title></dc:title>
      </cc:Work>
    </rdf:RDF>
  </metadata>
  <defs
     id="defs2989">
    <linearGradient
       id="linearGradient7380">
      <stop
         id="stop7382"
         offset="0"
         style="stop-color:#ffffff;stop-opacity:1;" />
      <stop
         style="stop-color:#ffffff;stop-opacity:1;"
         offset="0.63045132"
         id="stop7388" />
      <stop
         id="stop7390"
         offset="0.72157294"
         style="stop-color:#ffffff;stop-opacity:0.73846155;" />
      <stop
         id="stop7384"
         offset="1"
         style="stop-color:#ffffff;stop-opacity:0;" />
    </linearGradient>
    <linearGradient
       id="linearGradient6066">
      <stop
         style="stop-color:#ffffff;stop-opacity:1;"
         offset="0"
         id="stop6068" />
      <stop
         id="stop6070"
         offset="0.42406055"
         style="stop-color:#ffffff;stop-opacity:0.86923075;" />
      <stop
         style="stop-color:#ffffff;stop-opacity:0.66923076;"
         offset="0.56720388"
         id="stop6072" />
      <stop
         style="stop-color:#ffffff;stop-opacity:0;"
         offset="1"
         id="stop6074" />
    </linearGradient>
    <linearGradient
       id="linearGradient4610">
      <stop
         id="stop4612"
         offset="0"
         style="stop-color:#000000;stop-opacity:1;" />
      <stop
         id="stop4614"
         offset="1"
         style="stop-color:#efefef;stop-opacity:0;" />
    </linearGradient>
    <linearGradient
       id="linearGradient4592">
      <stop
         id="stop4594"
         offset="0"
         style="stop-color:#efefef;stop-opacity:1;" />
      <stop
         id="stop4596"
         offset="1"
         style="stop-color:#efefef;stop-opacity:0;" />
    </linearGradient>
    <linearGradient
       id="linearGradient4576">
      <stop
         style="stop-color:#f6f7f6;stop-opacity:0;"
         offset="0"
         id="stop4588" />
      <stop
         id="stop4590"
         offset="0.61643833"
         style="stop-color:#f6f7f6;stop-opacity:0.49230769;" />
      <stop
         id="stop4580"
         offset="1"
         style="stop-color:#f7f7f7;stop-opacity:0.72307694;" />
    </linearGradient>
    <linearGradient
       id="linearGradient5649">
      <stop
         id="stop5651"
         offset="0"
         style="stop-color:#ffffff;stop-opacity:1;" />
      <stop
         style="stop-color:#ffffff;stop-opacity:0.86923075;"
         offset="0.56295741"
         id="stop5657" />
      <stop
         id="stop5659"
         offset="0.68493152"
         style="stop-color:#ffffff;stop-opacity:0.66923076;" />
      <stop
         id="stop5653"
         offset="1"
         style="stop-color:#ffffff;stop-opacity:0;" />
    </linearGradient>
    <linearGradient
       id="linearGradient4565">
      <stop
         id="stop4567"
         offset="0"
         style="stop-color:#000000;stop-opacity:1;" />
      <stop
         id="stop4569"
         offset="1"
         style="stop-color:#000000;stop-opacity:0;" />
    </linearGradient>
    <linearGradient
       osb:paint="solid"
       id="linearGradient5405">
      <stop
         id="stop5407"
         offset="0"
         style="stop-color:#000000;stop-opacity:1;" />
    </linearGradient>
    <clipPath
       id="clipPath4002"
       clipPathUnits="userSpaceOnUse">
      <path
         transform="translate(-52.307027,-21.794595)"
         d="m 2196.8951,974.21838 a 1091.9092,915.37299 0 1 1 -2183.818318,0 1091.9092,915.37299 0 1 1 2183.818318,0 z"
         id="path4004"
         style="fill:#000000;fill-opacity:1;stroke:none" />
    </clipPath>
    <clipPath
       id="clipPath4304"
       clipPathUnits="userSpaceOnUse">
      <rect
         rx="0"
         ry="80.471474"
         y="325.80124"
         x="306.47794"
         height="394.47095"
         width="1048.3201"
         id="rect4306"
         style="fill:#ffffff;fill-opacity:1;fill-rule:evenodd;stroke:none" />
    </clipPath>
    <clipPath
       id="clipPath4318"
       clipPathUnits="userSpaceOnUse">
      <rect
         ry="80.471474"
         y="320.12796"
         x="491.73199"
         height="405.37946"
         width="762.81079"
         id="rect4320"
         style="fill:#ffffff;fill-opacity:1;fill-rule:evenodd;stroke:none" />
    </clipPath>
    <clipPath
       id="clipPath4318-4"
       clipPathUnits="userSpaceOnUse">
      <rect
         ry="80.471474"
         y="320.12796"
         x="491.73199"
         height="401.02057"
         width="769.34912"
         id="rect4320-9"
         style="fill:#ffffff;fill-opacity:1;fill-rule:evenodd;stroke:none" />
    </clipPath>
    <linearGradient
       gradientUnits="userSpaceOnUse"
       y2="798.82214"
       x2="1647.374"
       y1="798.82214"
       x1="179.99516"
       id="linearGradient4571"
       xlink:href="#linearGradient4565" />
    <linearGradient
       y2="798.82214"
       x2="1647.374"
       y1="798.82214"
       x1="179.99516"
       gradientUnits="userSpaceOnUse"
       id="linearGradient4599"
       xlink:href="#linearGradient4565" />
    <linearGradient
       y2="798.82214"
       x2="1647.374"
       y1="798.82214"
       x1="179.99516"
       gradientUnits="userSpaceOnUse"
       id="linearGradient4629"
       xlink:href="#linearGradient4565" />
    <linearGradient
       y2="798.82214"
       x2="1647.374"
       y1="798.82214"
       x1="179.99516"
       gradientUnits="userSpaceOnUse"
       id="linearGradient4639"
       xlink:href="#linearGradient4565" />
    <linearGradient
       y2="798.82214"
       x2="1647.374"
       y1="798.82214"
       x1="179.99516"
       gradientUnits="userSpaceOnUse"
       id="linearGradient4641"
       xlink:href="#linearGradient4565" />
    <linearGradient
       y2="798.82214"
       x2="1647.374"
       y1="798.82214"
       x1="179.99516"
       gradientUnits="userSpaceOnUse"
       id="linearGradient4779"
       xlink:href="#linearGradient4565" />
    <linearGradient
       y2="798.82214"
       x2="1647.374"
       y1="798.82214"
       x1="179.99516"
       gradientUnits="userSpaceOnUse"
       id="linearGradient4781"
       xlink:href="#linearGradient4565" />
    <linearGradient
       gradientUnits="userSpaceOnUse"
       y2="494.83578"
       x2="1609.5634"
       y1="494.83578"
       x1="586.96216"
       id="linearGradient4598"
       xlink:href="#linearGradient4592" />
    <radialGradient
       gradientUnits="userSpaceOnUse"
       gradientTransform="matrix(1,0,0,1.44098,0,-366.60679)"
       r="224.5"
       fy="831.3457"
       fx="1319.5"
       cy="831.3457"
       cx="1319.5"
       id="radialGradient7818"
       xlink:href="#linearGradient7380" />
    <clipPath
       id="clipPath7842"
       clipPathUnits="userSpaceOnUse">
      <rect
         y="-209.259"
         x="1500.0986"
         height="661.85193"
         width="379.00925"
         id="rect7844"
         style="fill:#ffffff;fill-opacity:1;stroke:none" />
    </clipPath>
    <clipPath
       id="clipPath7842-1"
       clipPathUnits="userSpaceOnUse">
      <rect
         y="-209.259"
         x="1500.0986"
         height="661.85193"
         width="379.00925"
         id="rect7844-4"
         style="fill:#ffffff;fill-opacity:1;stroke:none" />
    </clipPath>
    <radialGradient
       gradientUnits="userSpaceOnUse"
       gradientTransform="matrix(0.75925927,0,0,0.79447544,214.95691,-58.540418)"
       r="1188"
       fy="1263.2207"
       fx="1017.5134"
       cy="1263.2207"
       cx="1017.5134"
       id="radialGradient5655-0"
       xlink:href="#linearGradient5649-8" />
    <linearGradient
       id="linearGradient5649-8">
      <stop
         id="stop5651-7"
         offset="0"
         style="stop-color:#ffffff;stop-opacity:1;" />
      <stop
         style="stop-color:#ffffff;stop-opacity:0.86923075;"
         offset="0.56295741"
         id="stop5657-6" />
      <stop
         id="stop5659-1"
         offset="0.68493152"
         style="stop-color:#ffffff;stop-opacity:0.66923076;" />
      <stop
         id="stop5653-0"
         offset="1"
         style="stop-color:#ffffff;stop-opacity:0;" />
    </linearGradient>
    <filter
       color-interpolation-filters="sRGB"
       height="1.3200001"
       width="1.22"
       id="filter4920">
      <feFlood
         result="flood"
         flood-color="rgb(0,0,0)"
         flood-opacity="1"
         id="feFlood4922" />
      <feComposite
         result="composite1"
         operator="in"
         in="flood"
         in2="SourceGraphic"
         id="feComposite4924" />
      <feGaussianBlur
         result="blur"
         stdDeviation="6.2240677966101696"
         id="feGaussianBlur4926" />
      <feOffset
         result="offset"
         dy="5.8823529411764781"
         dx="5.8823529411764781"
         id="feOffset4928" />
      <feComposite
         result="composite2"
         operator="over"
         in="SourceGraphic"
         in2="offset"
         id="feComposite4930" />
    </filter>
    <radialGradient
       gradientUnits="userSpaceOnUse"
       gradientTransform="matrix(1,0,0,1.44098,0,-366.60679)"
       r="224.5"
       fy="831.3457"
       fx="1319.5"
       cy="831.3457"
       cx="1319.5"
       id="radialGradient7818-6"
       xlink:href="#linearGradient7380-7" />
    <linearGradient
       id="linearGradient7380-7">
      <stop
         id="stop7382-6"
         offset="0"
         style="stop-color:#ffffff;stop-opacity:1;" />
      <stop
         style="stop-color:#ffffff;stop-opacity:1;"
         offset="0.63045132"
         id="stop7388-4" />
      <stop
         id="stop7390-5"
         offset="0.72157294"
         style="stop-color:#ffffff;stop-opacity:0.73846155;" />
      <stop
         id="stop7384-6"
         offset="1"
         style="stop-color:#ffffff;stop-opacity:0;" />
    </linearGradient>
    <filter
       color-interpolation-filters="sRGB"
       height="1.3200001"
       width="1.22"
       id="filter4920-1">
      <feFlood
         result="flood"
         flood-color="rgb(0,0,0)"
         flood-opacity="1"
         id="feFlood4922-4" />
      <feComposite
         result="composite1"
         operator="in"
         in="flood"
         in2="SourceGraphic"
         id="feComposite4924-7" />
      <feGaussianBlur
         result="blur"
         stdDeviation="6.2240677966101696"
         id="feGaussianBlur4926-5" />
      <feOffset
         result="offset"
         dy="5.8823529411764781"
         dx="5.8823529411764781"
         id="feOffset4928-3" />
      <feComposite
         result="composite2"
         operator="over"
         in="SourceGraphic"
         in2="offset"
         id="feComposite4930-2" />
    </filter>
    <filter
       color-interpolation-filters="sRGB"
       id="filter3195">
      <feGaussianBlur
         stdDeviation="1.5"
         result="result6"
         id="feGaussianBlur3197" />
      <feComposite
         result="result8"
         in="SourceGraphic"
         operator="atop"
         in2="result6"
         id="feComposite3199" />
      <feComposite
         result="result9"
         operator="atop"
         in="result8"
         in2="SourceAlpha"
         id="feComposite3201" />
    </filter>
    <filter
       color-interpolation-filters="sRGB"
       id="filter3163">
      <feGaussianBlur
         stdDeviation="1.5"
         result="result6"
         id="feGaussianBlur3165" />
      <feComposite
         result="result8"
         in="SourceGraphic"
         operator="atop"
         in2="result6"
         id="feComposite3167" />
      <feComposite
         result="result9"
         operator="atop"
         in="result8"
         in2="SourceAlpha"
         id="feComposite3169" />
    </filter>
    <filter
       color-interpolation-filters="sRGB"
       id="filter3171">
      <feGaussianBlur
         stdDeviation="1.5"
         result="result6"
         id="feGaussianBlur3173" />
      <feComposite
         result="result8"
         in="SourceGraphic"
         operator="atop"
         in2="result6"
         id="feComposite3175" />
      <feComposite
         result="result9"
         operator="atop"
         in="result8"
         in2="SourceAlpha"
         id="feComposite3177" />
    </filter>
    <filter
       color-interpolation-filters="sRGB"
       id="filter3163-0">
      <feGaussianBlur
         stdDeviation="1.5"
         result="result6"
         id="feGaussianBlur3165-6" />
      <feComposite
         result="result8"
         in="SourceGraphic"
         operator="atop"
         in2="result6"
         id="feComposite3167-8" />
      <feComposite
         result="result9"
         operator="atop"
         in="result8"
         in2="SourceAlpha"
         id="feComposite3169-7" />
    </filter>
    <filter
       color-interpolation-filters="sRGB"
       id="filter5932">
      <feGaussianBlur
         stdDeviation="1.5"
         result="result6"
         id="feGaussianBlur5934" />
      <feComposite
         result="result8"
         in="SourceGraphic"
         operator="atop"
         in2="result6"
         id="feComposite5936" />
      <feComposite
         result="result9"
         operator="atop"
         in="result8"
         in2="SourceAlpha"
         id="feComposite5938" />
    </filter>
  </defs>
  <rect
     ry="161.05414"
     rx="273.17233"
     y="137.30933"
     x="2.5253758"
     height="1085.9139"
     width="1394.0105"
     id="rect4469"
     style="opacity:1;fill:#b3b3b3;fill-opacity:0.45508979;stroke:none;stroke-width:1;stroke-miterlimit:4;stroke-dasharray:none;stroke-opacity:1" />
  <g
     transform="translate(-220,-117.18786)"
     id="g7556"
     style="display:inline">
    <rect
       style="display:inline;fill:#24f22d;fill-opacity:1;stroke:#000000;stroke-width:30.66390228;stroke-linecap:square;stroke-linejoin:round;stroke-miterlimit:4;stroke-dasharray:none;stroke-opacity:1;enable-background:new"
       id="rect7572"
       width="298.30084"
       height="269.00653"
       x="-1327.7644"
       y="104.58916"
       ry="96.33815"
       transform="matrix(-0.96993444,-0.24336635,-0.10190769,0.99479386,0,0)" />
    <rect
       transform="matrix(0.96330547,-0.26840746,0.10352225,0.99462714,0,0)"
       ry="98.789574"
       y="573.78638"
       x="518.83423"
       height="275.85168"
       width="299.54373"
       id="rect7574"
       style="display:inline;fill:#24f22d;fill-opacity:1;stroke:#000000;stroke-width:30.7227211;stroke-linecap:square;stroke-linejoin:round;stroke-miterlimit:4;stroke-dasharray:none;stroke-opacity:1;enable-background:new" />
    <ellipse
       ry="57.021091"
       rx="13.869995"
       cy="952.63373"
       cx="901.54968"
       transform="matrix(3.1637399,0.01128737,-0.00609638,1.163846,-2068.5742,-576.94197)"
       id="path7576"
       style="display:inline;fill:#000000;fill-opacity:1;fill-rule:evenodd;stroke:#000000;stroke-opacity:1;enable-background:new" />
    <path
       id="path7578"
       d="m 863.84354,541.79698 75.82926,-2.01303"
       style="display:inline;fill:#717171;fill-opacity:1;stroke:#000000;stroke-width:30.5056076;stroke-linecap:butt;stroke-linejoin:miter;stroke-miterlimit:4;stroke-dasharray:none;stroke-opacity:1;enable-background:new" />
    <path
       style="display:inline;fill:#ffffff;fill-opacity:1;stroke:#000000;stroke-width:30.5056076;stroke-linecap:butt;stroke-linejoin:miter;stroke-miterlimit:4;stroke-dasharray:none;stroke-opacity:1;enable-background:new"
       d="m 971.0893,542.24153 -75.80833,-2.64156"
       id="path7580" />
    <ellipse
       ry="57.021091"
       rx="13.869995"
       cy="952.63373"
       cx="901.54968"
       style="display:inline;fill:#000000;fill-opacity:1;fill-rule:evenodd;stroke:#000000;stroke-opacity:1;enable-background:new"
       id="path7582"
       transform="matrix(-3.1637399,0.01128737,0.00609638,1.163846,3898.505,-582.25222)" />
    <path
       id="path7584"
       d="M 569.71393,506.97777 C 508.57914,429.39986 505.27987,400.9532 454.49001,430.62985 c -20.96157,18.23992 -19.57242,64.43018 -17.1787,71.88756"
       style="display:inline;fill:none;stroke:#000000;stroke-width:30.50534821;stroke-linecap:butt;stroke-linejoin:miter;stroke-miterlimit:4;stroke-dasharray:none;stroke-opacity:1;enable-background:new" />
    <path
       style="display:inline;fill:none;stroke:#000000;stroke-width:30.50534821;stroke-linecap:butt;stroke-linejoin:miter;stroke-miterlimit:4;stroke-dasharray:none;stroke-opacity:1;enable-background:new"
       d="m 1266.3284,490.1365 c 61.1349,-77.57792 64.4342,-106.02463 115.2239,-76.34799 20.9618,18.24001 19.5726,64.43025 17.1787,71.88762"
       id="path7586" />
  </g>
  <g
     transform="translate(-278.2464,180.03063)"
     id="g3858"
     style="display:inline">
    <path
       style="display:inline;fill:#000000;fill-opacity:1;stroke:#000000;stroke-width:18.6338253;stroke-miterlimit:4;stroke-dasharray:none;stroke-opacity:1;enable-background:new"
       d="m 671.62504,522.74452 c -31.90488,-42.43867 -94.0059,-60.73244 -108.31759,-116.00121 4.83829,-37.60391 -18.0583,-69.27025 -43.16741,-95.57282 -22.23808,-23.91865 -62.85094,-43.92644 -92.5709,-22.44519 -35.62847,31.8678 -19.78194,86.66559 7.46135,118.40148 13.49509,28.00133 65.58279,39.64342 64.69679,68.24086 -30.01865,-3.24612 -55.77743,-22.54327 -86.06784,-24.34006 -26.82555,-10.10895 -71.98164,-23.64928 -79.38356,16.69223 -13.47954,35.91893 25.96372,68.97491 59.83069,70.84778 21.47169,2.13081 77.09298,8.99151 66.14689,32.76005 -38.65911,22.27832 -85.18931,-14.67894 -120.72187,14.89875 -24.7381,27.85723 2.28834,81.7373 36.04483,75.74476 28.13711,0.90243 55.37122,-26.61739 80.59839,-20.25062 29.00628,30.95819 -39.40239,17.66584 -55.8368,28.46948 -19.99738,12.31072 -31.93346,27.75423 -50.05119,42.48987 -13.42894,39.94894 50.56721,82.47644 78.74115,46.22226 12.28588,-43.34262 68.25866,-39.93603 93.8373,-19.34848 25.53018,13.3145 41.05242,13.48345 64.0297,34.49862 64.15208,33.12646 118.19012,83.69482 183.98157,113.24842 33.12363,22.0091 59.27757,66.5766 104.59739,60.3217 37.66863,-3.1342 76.54492,-31.3328 75.34792,-72.2704 C 949.80877,821.0234 915.5417,774.65366 883.56351,733.4286 821.27382,684.13034 753.81216,639.35048 702.23621,578.24488 689.15736,561.46313 680.58665,541.8782 671.62504,522.74452 Z"
       id="path4589" />
    <path
       id="path4817"
       d="m 1284.7576,521.96718 c 31.923,-42.42499 94.0319,-60.69213 108.3673,-115.95476 -4.8222,-37.60598 18.088,-69.2625 43.2084,-95.5543 22.2483,-23.90911 62.8697,-43.89949 92.5804,-22.4055 35.6149,31.88307 19.7449,86.67407 -7.5121,118.39826 -13.507,27.99555 -65.5997,39.61531 -64.7259,68.21313 30.0199,-3.23326 55.787,-22.51935 86.0782,-24.30316 26.8298,-10.09745 71.9917,-23.61842 79.3764,16.72626 13.4641,35.9247 -25.9933,68.96377 -59.8611,70.82212 -21.4726,2.12161 -77.0968,8.95846 -66.1609,32.73169 38.6495,22.29489 85.1956,-14.64241 120.7154,14.95051 24.7262,27.86783 -2.3233,81.73631 -36.0772,75.72929 -28.1375,0.89038 -55.3599,-26.64112 -80.5898,-20.28517 -29.0194,30.94575 39.3949,17.68273 55.8247,28.49342 19.9921,12.31929 31.9215,27.76796 50.0329,42.51128 13.4119,39.9548 -50.6025,82.45475 -78.7609,46.1886 -12.2673,-43.34788 -68.2415,-39.96539 -93.829,-19.3888 -25.536,13.30364 -41.0582,13.46584 -64.0445,34.47116 -64.1663,33.09896 -118.2259,83.64409 -184.03,113.16959 -33.1332,21.9948 -59.3062,66.5512 -104.6233,60.2768 -37.6674,-3.1503 -76.5314,-31.3656 -75.3168,-72.3027 1.0363,-54.3281 35.3231,-100.68312 67.319,-141.89457 62.3108,-49.27154 129.7918,-94.02244 181.3939,-155.10592 13.0859,-16.77613 21.665,-36.3574 30.6349,-55.48723 z"
       style="display:inline;fill:#000000;fill-opacity:1;stroke:#000000;stroke-width:18.6338253;stroke-miterlimit:4;stroke-dasharray:none;stroke-opacity:1;enable-background:new" />
  </g>
  <path
     transform="translate(-688.4866,-464.68796)"
     d="M 0,0 A 0,0 0 1 1 0,0 0,0 0 1 1 0,0 z"
     id="path7406"
     style="fill:#32241a;fill-opacity:1;fill-rule:evenodd;stroke:#000000;stroke-width:36.8769989;stroke-linecap:butt;stroke-linejoin:miter;stroke-miterlimit:4;stroke-opacity:1;stroke-dasharray:none" />
</svg>
